<?xml version="1.0" encoding="utf-8"?>
<!-- Generator: Adobe Illustrator 24.0.1, SVG Export Plug-In . SVG Version: 6.00 Build 0)  -->
<svg version="1.1" id="Layer_1" xmlns="http://www.w3.org/2000/svg" xmlns:xlink="http://www.w3.org/1999/xlink" x="0px" y="0px"
	 viewBox="0 0 512 512" style="enable-background:new 0 0 512 512;" xml:space="preserve">
<style type="text/css">
	.st0{fill:none;}
	.st1{fill:#3E3E3E;}
</style>
<g id="Group_95" transform="translate(-32 -157)">
	<rect id="Rectangle_364" x="31.94" y="157" class="st0" width="512" height="512"/>
	<g id="Group_67" transform="translate(34 159.004)">
		<g id="Group_65">
			<path id="Path_65" class="st1" d="M467.28,264.75c0.63-59.87-31.21-115.38-83.2-145.07v288
				C436.34,379.33,468.43,324.2,467.28,264.75z"/>
		</g>
		<g id="Group_66">
			<path id="Path_66" class="st1" d="M285.94,467.41c-13.07,0.55-25.66-4.96-34.13-14.93l-85.33-89.6h-76.8
				c-27.66-0.56-49.63-23.43-49.07-51.09c0-0.04,0-0.07,0-0.11v-115.2c-0.62-27.66,21.3-50.58,48.96-51.2c0.04,0,0.07,0,0.11,0
				h74.67l85.33-89.6c13.52-14.86,35.14-19.19,53.33-10.67c19.21,7.69,31.85,26.24,32,46.93v326.4c-0.15,20.69-12.79,39.24-32,46.93
				C298.74,465.28,292.34,467.41,285.94,467.41z M89.68,187.95c-4.27,0-6.4,4.27-6.4,8.53v117.33c0,4.27,2.13,8.53,6.4,8.53h93.87
				l98.13,102.4c1.79,1.48,4.08,2.24,6.4,2.13c2.13,0,4.27-2.13,4.27-6.4V91.95c-0.22-2.73-1.83-5.15-4.27-6.4
				c-4.27-2.13-6.4,0-6.4,2.13l-98.13,100.27H89.68z"/>
		</g>
	</g>
</g>
</svg>
